[
  {"CONFIGURATION" : {
    "BATCH_NAME":"FAT_IMPULSE_B_80_L_55_R_10_S_40_SLA_100_CONV_VS_LOAD_50",
    "NBR_RUNS":5,
    "INITIAL_PLACEMENT": "RANDOM",
    "EXCL_INIT_PLACEMENT": [],
    "DURATION": 200,
    "DC_CAPACITY_CHANGE_EVENT": {"100": {"STOCHASTIC":{"LARGE":"MEDIUM"}}},
    "NETWORK":{"TYPE":"FAT_TREE","CONFIG":{"NBR_NODES":40, "SMALL_EDGE_THRESHOLD":1.0, "LEVEL":"LARGE"}},
    "WORKLOAD":{"TYPE":"STATIC","GENERATE":"TRUE", "CONFIG":{"GLOBAL_SCALE":0.45}, "SCALE_PER_TYPE":{"0":1.0, "1":1.0, "2":1.0, "3":1.0}},
    "APPLICATIONS": {"NBR":400, "SLA_PADDING":{"1":-0.6,"2":-1.0,"3":-0.95}, "DIST":"UNIFORM", "PLACEMENT_MEM_SIZE":0, "MIGRATION_SLA_BUFFER":0.0},
    "BUDGET_FACTOR": 0.8,
    "EPOCH":10.0
    },
    "SCENARIOS" : [
    {
      "SCENARIO_NAME": "PROPOSED",
      "BUDGET_VILOATION_MITIGATION_STRATEGY": "NONE",
      "EXPULSION_STRATEGY": "LOCAL_BEST_EFFORT",
      "SLA_VILOATION_MITIGATION_STRATEGY": "LOCAL_BEST_EFFORT",
    },
    { 
      "SCENARIO_NAME": "RANDOM",
      "BUDGET_VILOATION_MITIGATION_STRATEGY": "RANDOM",
      "SLA_VILOATION_MITIGATION_STRATEGY": "RANDOM",
      "EXPULSION_STRATEGY": "RANDOM",
    },
    {
      "SCENARIO_NAME": "NAIVE",
      "BUDGET_VILOATION_MITIGATION_STRATEGY": "MAX_PEER_SURPLUS",
      "EXPULSION_STRATEGY": "HEAVIEST",
      "SLA_VILOATION_MITIGATION_STRATEGY": "MIN_DISTANCE",
    },
    {
      "SCENARIO_NAME": "OPTIMAL",
      "BUDGET_VILOATION_MITIGATION_STRATEGY": "OPTIMAL",
      "SLA_VILOATION_MITIGATION_STRATEGY": "NONE",
      "EXPULSION_STRATEGY": "NONE",
      "NBR_RUNS": 1
    }
    ]
  }
]