[
{
  "SCENARIO_NAME": "MAX_EQUAL_NET_SURPUS_PERCENTUAL",
  "NETWORK": {"TYPE":"BALANCED"},
  "INITIAL_PLACEMENT": "RANDOM",
  "EXCL_INIT_PLACEMENT": [],
  "BUDGET_VILOATION_MITIGATION_STRATEGY": "NONE",
  "EXPULSION_STRATEGY": "MAX_EQUAL_NET_SURPUS_PERCENTUAL",
  "SLA_VILOATION_MITIGATION_STRATEGY": "MIN_DISTANCE",
  "APPLICATIONS": {"NBR":150, "SLA_RANGE":[60,80,90], "DIST":"UNIFORM", "PLACEMENT_MEM_SIZE":0},
  "BUDGET_FACTOR": 0.80,
  "EPOCH":10.0,
  "DC_CAPACITY_CHANGE_EVENT": { "100": {"1":"SMALL"}},
},
{
  "SCENARIO_NAME": "OPTIMAL",
  "BUDGET_VILOATION_MITIGATION_STRATEGY": "OPTIMAL",
  "SLA_VILOATION_MITIGATION_STRATEGY": "NONE",
  "EXPULSION_STRATEGY": "NONE",
  "BUDGET_FACTOR": 1.0,
}
]